{"failedCount":1,"prefixedPath":"src\/test\/java\/resources\/GetAPI.feature","packageQualifiedName":"src.test.java.resources.GetAPI","loopIndex":-1,"relativePath":"src\/test\/java\/resources\/GetAPI.feature","scenarioResults":[{"sectionIndex":1,"stepResults":[{"result":{"nanos":143464500,"millis":143.4645,"status":"passed"},"step":{"background":true,"line":3,"prefix":"*","index":0,"text":"url 'https:\/\/reqres.in\/api'"}},{"result":{"nanos":11973600,"millis":11.9736,"status":"passed"},"step":{"background":true,"line":4,"prefix":"*","index":1,"text":"headers Accept = 'application\/json'"},"stepLog":"16:01:24.035 did not evaluate to map Accept = 'application\/json': [type: STRING, value: application\/json]\n"},{"result":{"nanos":618400,"millis":0.6184,"status":"passed"},"step":{"line":14,"prefix":"Given","index":0,"text":"path '\/users?page=2'"}},{"result":{"nanos":1659889000,"millis":1659.889,"status":"passed"},"step":{"line":15,"prefix":"When","index":1,"text":"method GET"},"stepLog":"16:01:25.134 request:\n1 > GET https:\/\/reqres.in\/api\/users%3Fpage=2\n1 > Host: reqres.in\n1 > Connection: Keep-Alive\n1 > User-Agent: Apache-HttpClient\/4.5.13 (Java\/1.8.0_121)\n1 > Accept-Encoding: gzip,deflate\n\n\n16:01:25.619 response time in milliseconds: 477\n1 < 200\n1 < Date: Sat, 10 Jun 2023 15:01:27 GMT\n1 < Content-Type: application\/json; charset=utf-8\n1 < Transfer-Encoding: chunked\n1 < Connection: keep-alive\n1 < X-Powered-By: Express\n1 < Access-Control-Allow-Origin: *\n1 < Etag: W\/\"2c1-N6Rqerxquq2kgQhL51EiSg4x0R8\"\n1 < Via: 1.1 vegur\n1 < Cache-Control: max-age=14400\n1 < CF-Cache-Status: HIT\n1 < Age: 481\n1 < Report-To: {\"endpoints\":[{\"url\":\"https:\\\/\\\/a.nel.cloudflare.com\\\/report\\\/v3?s=49QaEKIUd3CTGKtfdToz3MR%2Bv5g%2Fl2BAAEfCKjb760G%2Bj0jBVhH7Ti7ntq%2FWsQmOqj8pB5UYFy4GqZyuilhhVjBrudk3682MPXmYGDc2RepwLZUZ3Hlr2AUOYQ%3D%3D\"}],\"group\":\"cf-nel\",\"max_age\":604800}\n1 < NEL: {\"success_fraction\":0,\"report_to\":\"cf-nel\",\"max_age\":604800}\n1 < Vary: Accept-Encoding\n1 < Server: cloudflare\n1 < CF-RAY: 7d527d5bbe0323fc-LHR\n{\"page\":1,\"per_page\":6,\"total\":12,\"total_pages\":2,\"data\":[{\"id\":1,\"name\":\"cerulean\",\"year\":2000,\"color\":\"#98B2D1\",\"pantone_value\":\"15-4020\"},{\"id\":2,\"name\":\"fuchsia rose\",\"year\":2001,\"color\":\"#C74375\",\"pantone_value\":\"17-2031\"},{\"id\":3,\"name\":\"true red\",\"year\":2002,\"color\":\"#BF1932\",\"pantone_value\":\"19-1664\"},{\"id\":4,\"name\":\"aqua sky\",\"year\":2003,\"color\":\"#7BC4C4\",\"pantone_value\":\"14-4811\"},{\"id\":5,\"name\":\"tigerlily\",\"year\":2004,\"color\":\"#E2583E\",\"pantone_value\":\"17-1456\"},{\"id\":6,\"name\":\"blue turquoise\",\"year\":2005,\"color\":\"#53B0AE\",\"pantone_value\":\"15-5217\"}],\"support\":{\"url\":\"https:\/\/reqres.in\/#support-heading\",\"text\":\"To keep ReqRes free, contributions towards server costs are appreciated!\"}}\n\n"},{"result":{"nanos":28500,"millis":0.0285,"status":"passed"},"step":{"line":16,"prefix":"Then","index":2,"text":"status 200"}},{"result":{"nanos":132195500,"errorMessage":"match failed: EQUALS\n  $ | actual path does not exist (STRING:STRING)\n  '#notpresent'\n  'cerulean'\n\nsrc\/test\/java\/resources\/GetAPI.feature:17","millis":132.1955,"status":"failed"},"step":{"line":17,"prefix":"And","index":3,"text":"match response.data[0].first_name == 'cerulean'"},"stepLog":"16:01:25.829 src\/test\/java\/resources\/GetAPI.feature:17\nAnd match response.data[0].first_name == 'cerulean'\nmatch failed: EQUALS\n  $ | actual path does not exist (STRING:STRING)\n  '#notpresent'\n  'cerulean'\n\nsrc\/test\/java\/resources\/GetAPI.feature:17\n"},{"result":{"nanos":0,"millis":0.0,"status":"skipped"},"step":{"line":18,"prefix":"And","index":4,"text":"match response.data.length == 10"}}],"line":13,"description":"","durationMillis":1948.1695,"failed":true,"error":"match failed: EQUALS\n  $ | actual path does not exist (STRING:STRING)\n  '#notpresent'\n  'cerulean'\n\nsrc\/test\/java\/resources\/GetAPI.feature:17","executorName":"main","name":"Get Demo2","startTime":1686409283852,"refId":"[2:13]","endTime":1686409285829,"exampleIndex":-1}],"callDepth":0,"name":"Get API Demo","description":"","resultDate":"2023-06-10 04:01:25 PM","durationMillis":1948.1695,"passedCount":0}