{"failedCount":1,"prefixedPath":"src\/test\/java\/resources\/GetAPI.feature","packageQualifiedName":"src.test.java.resources.GetAPI","loopIndex":-1,"relativePath":"src\/test\/java\/resources\/GetAPI.feature","scenarioResults":[{"sectionIndex":1,"stepResults":[{"result":{"nanos":160632400,"millis":160.6324,"status":"passed"},"step":{"background":true,"line":3,"prefix":"*","index":0,"text":"url 'https:\/\/reqres.in\/api'"}},{"result":{"nanos":11910500,"millis":11.9105,"status":"passed"},"step":{"background":true,"line":4,"prefix":"*","index":1,"text":"headers Accept = 'application\/json'"},"stepLog":"15:58:07.836 did not evaluate to map Accept = 'application\/json': [type: STRING, value: application\/json]\n"},{"result":{"nanos":604100,"millis":0.6041,"status":"passed"},"step":{"line":14,"prefix":"Given","index":0,"text":"path '\/users?page=2'"}},{"result":{"nanos":1212289000,"millis":1212.289,"status":"passed"},"step":{"line":15,"prefix":"When","index":1,"text":"method GET"},"stepLog":"15:58:08.592 request:\n1 > GET https:\/\/reqres.in\/api\/users%3Fpage=2\n1 > Host: reqres.in\n1 > Connection: Keep-Alive\n1 > User-Agent: Apache-HttpClient\/4.5.13 (Java\/1.8.0_121)\n1 > Accept-Encoding: gzip,deflate\n\n\n15:58:09.007 response time in milliseconds: 411\n1 < 200\n1 < Date: Sat, 10 Jun 2023 14:58:10 GMT\n1 < Content-Type: application\/json; charset=utf-8\n1 < Transfer-Encoding: chunked\n1 < Connection: keep-alive\n1 < X-Powered-By: Express\n1 < Access-Control-Allow-Origin: *\n1 < Etag: W\/\"2c1-N6Rqerxquq2kgQhL51EiSg4x0R8\"\n1 < Via: 1.1 vegur\n1 < Cache-Control: max-age=14400\n1 < CF-Cache-Status: HIT\n1 < Age: 287\n1 < Report-To: {\"endpoints\":[{\"url\":\"https:\\\/\\\/a.nel.cloudflare.com\\\/report\\\/v3?s=3jhJhLSlq4aQIu5hMgHngWxEeVK%2FqoLCVsfotfx8a39oqTMuaVkm8GTVHnzXsf4R5d3mA2HXl0KdKl4dotZh97gN%2FcpTqAOuSQIiI%2BZkAw4Bx8LxmlEtfYaQWA%3D%3D\"}],\"group\":\"cf-nel\",\"max_age\":604800}\n1 < NEL: {\"success_fraction\":0,\"report_to\":\"cf-nel\",\"max_age\":604800}\n1 < Vary: Accept-Encoding\n1 < Server: cloudflare\n1 < CF-RAY: 7d52788f19a3417c-LHR\n{\"page\":1,\"per_page\":6,\"total\":12,\"total_pages\":2,\"data\":[{\"id\":1,\"name\":\"cerulean\",\"year\":2000,\"color\":\"#98B2D1\",\"pantone_value\":\"15-4020\"},{\"id\":2,\"name\":\"fuchsia rose\",\"year\":2001,\"color\":\"#C74375\",\"pantone_value\":\"17-2031\"},{\"id\":3,\"name\":\"true red\",\"year\":2002,\"color\":\"#BF1932\",\"pantone_value\":\"19-1664\"},{\"id\":4,\"name\":\"aqua sky\",\"year\":2003,\"color\":\"#7BC4C4\",\"pantone_value\":\"14-4811\"},{\"id\":5,\"name\":\"tigerlily\",\"year\":2004,\"color\":\"#E2583E\",\"pantone_value\":\"17-1456\"},{\"id\":6,\"name\":\"blue turquoise\",\"year\":2005,\"color\":\"#53B0AE\",\"pantone_value\":\"15-5217\"}],\"support\":{\"url\":\"https:\/\/reqres.in\/#support-heading\",\"text\":\"To keep ReqRes free, contributions towards server costs are appreciated!\"}}\n\n"},{"result":{"nanos":16600,"millis":0.0166,"status":"passed"},"step":{"line":16,"prefix":"Then","index":2,"text":"status 200"}},{"result":{"nanos":65140900,"errorMessage":"match failed: EQUALS\n  $ | not equal (STRING:STRING)\n  'cerulean'\n  'cerulea'\n\nsrc\/test\/java\/resources\/GetAPI.feature:17","millis":65.1409,"status":"failed"},"step":{"line":17,"prefix":"And","index":3,"text":"match response.data[0].name == 'cerulea'"},"stepLog":"15:58:09.115 src\/test\/java\/resources\/GetAPI.feature:17\nAnd match response.data[0].name == 'cerulea'\nmatch failed: EQUALS\n  $ | not equal (STRING:STRING)\n  'cerulean'\n  'cerulea'\n\nsrc\/test\/java\/resources\/GetAPI.feature:17\n"}],"line":13,"description":"","durationMillis":1450.5935,"failed":true,"error":"match failed: EQUALS\n  $ | not equal (STRING:STRING)\n  'cerulean'\n  'cerulea'\n\nsrc\/test\/java\/resources\/GetAPI.feature:17","executorName":"main","name":"Get Demo2","startTime":1686409087632,"refId":"[2:13]","endTime":1686409089115,"exampleIndex":-1}],"callDepth":0,"name":"Get API Demo","description":"","resultDate":"2023-06-10 03:58:09 PM","durationMillis":1450.5935,"passedCount":0}